…
library(dplyr)
#> 
#> Attaching package: 'dplyr'
#> The following objects are masked from 'package:stats':
#> 
#>     filter, lag
#> The following objects are masked from 'package:base':
#> 
#>     intersect, setdiff, setequal, union
ike_simplData <- dplyr::filter(ext_tracks, storm_name == 'IKE',
                               year == 2008) %>%
  dplyr::select(month, day, hour, longitude, latitude,
                max_wind,eye_diameter, distance_to_land)
ike_simplData
#> # A tibble: 58 × 8
#>    month day   hour  longitude latitude max_wind eye_diameter distance_to_land
#>    <chr> <chr> <chr>     <dbl>    <dbl>    <dbl>        <dbl>            <dbl>
#>  1 09    01    06         37       17.2       30           NA             2100
#>  2 09    01    12         38.4     17.3       35           NA             2036
#>  3 09    01    18         39.9     17.5       45           NA             1946
#>  4 09    02    00         41.3     17.8       45           NA             1879
#>  5 09    02    06         42.8     18.2       45           NA             1811
#>  6 09    02    12         44.3     18.7       50           NA             1766
#>  7 09    02    18         45.8     19.3       55           NA             1747
#>  8 09    03    00         47.3     19.8       55           NA             1727
#>  9 09    03    06         48.8     20.2       55           NA             1673
#> 10 09    03    12         50.3     20.6       60           NA             1580
#> # … with 48 more rows
```
…
